NOTICE:  table "pgbench_history" does not exist, skipping
NOTICE:  table "pgbench_tellers" does not exist, skipping
NOTICE:  table "pgbench_accounts" does not exist, skipping
NOTICE:  table "pgbench_branches" does not exist, skipping
creating tables...
100000 of 30000000 tuples (0%) done (elapsed 0.11 s, remaining 32.18 s)
200000 of 30000000 tuples (0%) done (elapsed 0.23 s, remaining 33.64 s)
300000 of 30000000 tuples (1%) done (elapsed 0.34 s, remaining 34.10 s)
400000 of 30000000 tuples (1%) done (elapsed 0.45 s, remaining 33.59 s)
500000 of 30000000 tuples (1%) done (elapsed 0.56 s, remaining 33.06 s)
600000 of 30000000 tuples (2%) done (elapsed 0.65 s, remaining 32.06 s)
700000 of 30000000 tuples (2%) done (elapsed 0.75 s, remaining 31.20 s)
800000 of 30000000 tuples (2%) done (elapsed 0.84 s, remaining 30.72 s)
900000 of 30000000 tuples (3%) done (elapsed 0.93 s, remaining 30.11 s)
1000000 of 30000000 tuples (3%) done (elapsed 1.03 s, remaining 29.84 s)
1100000 of 30000000 tuples (3%) done (elapsed 1.13 s, remaining 29.73 s)
1200000 of 30000000 tuples (4%) done (elapsed 1.23 s, remaining 29.44 s)
1300000 of 30000000 tuples (4%) done (elapsed 1.32 s, remaining 29.18 s)
1400000 of 30000000 tuples (4%) done (elapsed 1.42 s, remaining 28.98 s)
1500000 of 30000000 tuples (5%) done (elapsed 1.52 s, remaining 28.85 s)
1600000 of 30000000 tuples (5%) done (elapsed 1.61 s, remaining 28.60 s)
1700000 of 30000000 tuples (5%) done (elapsed 1.71 s, remaining 28.50 s)
1800000 of 30000000 tuples (6%) done (elapsed 1.81 s, remaining 28.42 s)
1900000 of 30000000 tuples (6%) done (elapsed 1.91 s, remaining 28.20 s)
2000000 of 30000000 tuples (6%) done (elapsed 2.01 s, remaining 28.10 s)
2100000 of 30000000 tuples (7%) done (elapsed 2.11 s, remaining 28.00 s)
2200000 of 30000000 tuples (7%) done (elapsed 2.20 s, remaining 27.80 s)
2300000 of 30000000 tuples (7%) done (elapsed 2.30 s, remaining 27.71 s)
2400000 of 30000000 tuples (8%) done (elapsed 2.40 s, remaining 27.61 s)
2500000 of 30000000 tuples (8%) done (elapsed 2.49 s, remaining 27.43 s)
2600000 of 30000000 tuples (8%) done (elapsed 2.59 s, remaining 27.31 s)
2700000 of 30000000 tuples (9%) done (elapsed 2.69 s, remaining 27.17 s)
2800000 of 30000000 tuples (9%) done (elapsed 2.79 s, remaining 27.10 s)
2900000 of 30000000 tuples (9%) done (elapsed 2.88 s, remaining 26.93 s)
3000000 of 30000000 tuples (10%) done (elapsed 2.98 s, remaining 26.86 s)
3100000 of 30000000 tuples (10%) done (elapsed 3.08 s, remaining 26.73 s)
3200000 of 30000000 tuples (10%) done (elapsed 3.17 s, remaining 26.57 s)
3300000 of 30000000 tuples (11%) done (elapsed 3.27 s, remaining 26.48 s)
3400000 of 30000000 tuples (11%) done (elapsed 3.36 s, remaining 26.32 s)
3500000 of 30000000 tuples (11%) done (elapsed 3.46 s, remaining 26.23 s)
3600000 of 30000000 tuples (12%) done (elapsed 3.56 s, remaining 26.14 s)
3700000 of 30000000 tuples (12%) done (elapsed 3.66 s, remaining 25.99 s)
3800000 of 30000000 tuples (12%) done (elapsed 3.75 s, remaining 25.87 s)
3900000 of 30000000 tuples (13%) done (elapsed 3.85 s, remaining 25.78 s)
4000000 of 30000000 tuples (13%) done (elapsed 3.95 s, remaining 25.65 s)
4100000 of 30000000 tuples (13%) done (elapsed 4.04 s, remaining 25.54 s)
4200000 of 30000000 tuples (14%) done (elapsed 4.14 s, remaining 25.45 s)
4300000 of 30000000 tuples (14%) done (elapsed 4.24 s, remaining 25.33 s)
4400000 of 30000000 tuples (14%) done (elapsed 4.34 s, remaining 25.24 s)
4500000 of 30000000 tuples (15%) done (elapsed 4.43 s, remaining 25.11 s)
4600000 of 30000000 tuples (15%) done (elapsed 4.53 s, remaining 25.01 s)
4700000 of 30000000 tuples (15%) done (elapsed 4.63 s, remaining 24.92 s)
4800000 of 30000000 tuples (16%) done (elapsed 4.72 s, remaining 24.79 s)
4900000 of 30000000 tuples (16%) done (elapsed 4.82 s, remaining 24.71 s)
5000000 of 30000000 tuples (16%) done (elapsed 4.92 s, remaining 24.58 s)
5100000 of 30000000 tuples (17%) done (elapsed 5.02 s, remaining 24.49 s)
5200000 of 30000000 tuples (17%) done (elapsed 5.11 s, remaining 24.36 s)
5300000 of 30000000 tuples (17%) done (elapsed 5.21 s, remaining 24.27 s)
5400000 of 30000000 tuples (18%) done (elapsed 5.30 s, remaining 24.15 s)
5500000 of 30000000 tuples (18%) done (elapsed 5.40 s, remaining 24.05 s)
5600000 of 30000000 tuples (18%) done (elapsed 5.50 s, remaining 23.95 s)
5700000 of 30000000 tuples (19%) done (elapsed 5.60 s, remaining 23.86 s)
5800000 of 30000000 tuples (19%) done (elapsed 5.69 s, remaining 23.74 s)
5900000 of 30000000 tuples (19%) done (elapsed 5.79 s, remaining 23.64 s)
6000000 of 30000000 tuples (20%) done (elapsed 5.89 s, remaining 23.55 s)
6100000 of 30000000 tuples (20%) done (elapsed 5.98 s, remaining 23.43 s)
6200000 of 30000000 tuples (20%) done (elapsed 6.08 s, remaining 23.35 s)
6300000 of 30000000 tuples (21%) done (elapsed 6.17 s, remaining 23.23 s)
6400000 of 30000000 tuples (21%) done (elapsed 6.27 s, remaining 23.14 s)
6500000 of 30000000 tuples (21%) done (elapsed 6.37 s, remaining 23.02 s)
6600000 of 30000000 tuples (22%) done (elapsed 6.47 s, remaining 22.92 s)
6700000 of 30000000 tuples (22%) done (elapsed 6.56 s, remaining 22.82 s)
6800000 of 30000000 tuples (22%) done (elapsed 6.66 s, remaining 22.72 s)
6900000 of 30000000 tuples (23%) done (elapsed 6.76 s, remaining 22.63 s)
7000000 of 30000000 tuples (23%) done (elapsed 6.85 s, remaining 22.52 s)
7100000 of 30000000 tuples (23%) done (elapsed 6.95 s, remaining 22.41 s)
7200000 of 30000000 tuples (24%) done (elapsed 7.05 s, remaining 22.33 s)
7300000 of 30000000 tuples (24%) done (elapsed 7.15 s, remaining 22.22 s)
7400000 of 30000000 tuples (24%) done (elapsed 7.24 s, remaining 22.11 s)
7500000 of 30000000 tuples (25%) done (elapsed 7.34 s, remaining 22.02 s)
7600000 of 30000000 tuples (25%) done (elapsed 7.43 s, remaining 21.91 s)
7700000 of 30000000 tuples (25%) done (elapsed 7.53 s, remaining 21.82 s)
7800000 of 30000000 tuples (26%) done (elapsed 7.63 s, remaining 21.70 s)
7900000 of 30000000 tuples (26%) done (elapsed 7.73 s, remaining 21.61 s)
8000000 of 30000000 tuples (26%) done (elapsed 7.83 s, remaining 21.52 s)
8100000 of 30000000 tuples (27%) done (elapsed 7.92 s, remaining 21.42 s)
8200000 of 30000000 tuples (27%) done (elapsed 8.02 s, remaining 21.31 s)
8300000 of 30000000 tuples (27%) done (elapsed 8.12 s, remaining 21.22 s)
8400000 of 30000000 tuples (28%) done (elapsed 8.22 s, remaining 21.13 s)
8500000 of 30000000 tuples (28%) done (elapsed 8.31 s, remaining 21.02 s)
8600000 of 30000000 tuples (28%) done (elapsed 8.41 s, remaining 20.93 s)
8700000 of 30000000 tuples (29%) done (elapsed 8.51 s, remaining 20.83 s)
8800000 of 30000000 tuples (29%) done (elapsed 8.60 s, remaining 20.73 s)
8900000 of 30000000 tuples (29%) done (elapsed 8.70 s, remaining 20.64 s)
9000000 of 30000000 tuples (30%) done (elapsed 8.80 s, remaining 20.54 s)
9100000 of 30000000 tuples (30%) done (elapsed 8.89 s, remaining 20.43 s)
9200000 of 30000000 tuples (30%) done (elapsed 9.00 s, remaining 20.35 s)
9300000 of 30000000 tuples (31%) done (elapsed 9.10 s, remaining 20.25 s)
9400000 of 30000000 tuples (31%) done (elapsed 9.19 s, remaining 20.15 s)
9500000 of 30000000 tuples (31%) done (elapsed 9.30 s, remaining 20.06 s)
9600000 of 30000000 tuples (32%) done (elapsed 9.40 s, remaining 19.97 s)
9700000 of 30000000 tuples (32%) done (elapsed 9.49 s, remaining 19.87 s)
9800000 of 30000000 tuples (32%) done (elapsed 9.59 s, remaining 19.76 s)
9900000 of 30000000 tuples (33%) done (elapsed 9.69 s, remaining 19.67 s)
10000000 of 30000000 tuples (33%) done (elapsed 9.79 s, remaining 19.57 s)
10100000 of 30000000 tuples (33%) done (elapsed 9.89 s, remaining 19.48 s)
10200000 of 30000000 tuples (34%) done (elapsed 9.98 s, remaining 19.38 s)
10300000 of 30000000 tuples (34%) done (elapsed 10.08 s, remaining 19.28 s)
10400000 of 30000000 tuples (34%) done (elapsed 10.18 s, remaining 19.18 s)
10500000 of 30000000 tuples (35%) done (elapsed 10.27 s, remaining 19.08 s)
10600000 of 30000000 tuples (35%) done (elapsed 10.38 s, remaining 18.99 s)
10700000 of 30000000 tuples (35%) done (elapsed 10.47 s, remaining 18.89 s)
10800000 of 30000000 tuples (36%) done (elapsed 10.57 s, remaining 18.79 s)
10900000 of 30000000 tuples (36%) done (elapsed 10.66 s, remaining 18.69 s)
11000000 of 30000000 tuples (36%) done (elapsed 10.77 s, remaining 18.59 s)
11100000 of 30000000 tuples (37%) done (elapsed 10.86 s, remaining 18.49 s)
11200000 of 30000000 tuples (37%) done (elapsed 10.96 s, remaining 18.39 s)
11300000 of 30000000 tuples (37%) done (elapsed 11.05 s, remaining 18.29 s)
11400000 of 30000000 tuples (38%) done (elapsed 11.15 s, remaining 18.20 s)
11500000 of 30000000 tuples (38%) done (elapsed 11.25 s, remaining 18.10 s)
11600000 of 30000000 tuples (38%) done (elapsed 11.35 s, remaining 18.00 s)
11700000 of 30000000 tuples (39%) done (elapsed 11.45 s, remaining 17.91 s)
11800000 of 30000000 tuples (39%) done (elapsed 11.55 s, remaining 17.81 s)
11900000 of 30000000 tuples (39%) done (elapsed 11.64 s, remaining 17.71 s)
12000000 of 30000000 tuples (40%) done (elapsed 11.74 s, remaining 17.62 s)
12100000 of 30000000 tuples (40%) done (elapsed 11.84 s, remaining 17.52 s)
12200000 of 30000000 tuples (40%) done (elapsed 11.94 s, remaining 17.42 s)
12300000 of 30000000 tuples (41%) done (elapsed 12.03 s, remaining 17.32 s)
12400000 of 30000000 tuples (41%) done (elapsed 12.13 s, remaining 17.22 s)
12500000 of 30000000 tuples (41%) done (elapsed 12.23 s, remaining 17.12 s)
12600000 of 30000000 tuples (42%) done (elapsed 12.36 s, remaining 17.07 s)
12700000 of 30000000 tuples (42%) done (elapsed 12.60 s, remaining 17.16 s)
12800000 of 30000000 tuples (42%) done (elapsed 12.77 s, remaining 17.16 s)
12900000 of 30000000 tuples (43%) done (elapsed 12.96 s, remaining 17.18 s)
13000000 of 30000000 tuples (43%) done (elapsed 13.07 s, remaining 17.10 s)
13100000 of 30000000 tuples (43%) done (elapsed 13.19 s, remaining 17.02 s)
13200000 of 30000000 tuples (44%) done (elapsed 13.31 s, remaining 16.93 s)
13300000 of 30000000 tuples (44%) done (elapsed 13.42 s, remaining 16.85 s)
13400000 of 30000000 tuples (44%) done (elapsed 13.54 s, remaining 16.77 s)
13500000 of 30000000 tuples (45%) done (elapsed 13.63 s, remaining 16.66 s)
13600000 of 30000000 tuples (45%) done (elapsed 13.73 s, remaining 16.56 s)
13700000 of 30000000 tuples (45%) done (elapsed 13.83 s, remaining 16.46 s)
13800000 of 30000000 tuples (46%) done (elapsed 13.93 s, remaining 16.35 s)
13900000 of 30000000 tuples (46%) done (elapsed 14.02 s, remaining 16.24 s)
14000000 of 30000000 tuples (46%) done (elapsed 14.13 s, remaining 16.15 s)
14100000 of 30000000 tuples (47%) done (elapsed 14.22 s, remaining 16.04 s)
14200000 of 30000000 tuples (47%) done (elapsed 14.33 s, remaining 15.94 s)
14300000 of 30000000 tuples (47%) done (elapsed 14.42 s, remaining 15.83 s)
14400000 of 30000000 tuples (48%) done (elapsed 14.52 s, remaining 15.73 s)
14500000 of 30000000 tuples (48%) done (elapsed 14.62 s, remaining 15.62 s)
14600000 of 30000000 tuples (48%) done (elapsed 14.71 s, remaining 15.52 s)
14700000 of 30000000 tuples (49%) done (elapsed 14.81 s, remaining 15.41 s)
14800000 of 30000000 tuples (49%) done (elapsed 14.91 s, remaining 15.31 s)
14900000 of 30000000 tuples (49%) done (elapsed 15.01 s, remaining 15.21 s)
15000000 of 30000000 tuples (50%) done (elapsed 15.11 s, remaining 15.11 s)
15100000 of 30000000 tuples (50%) done (elapsed 15.21 s, remaining 15.01 s)
15200000 of 30000000 tuples (50%) done (elapsed 15.31 s, remaining 14.91 s)
15300000 of 30000000 tuples (51%) done (elapsed 15.41 s, remaining 14.80 s)
15400000 of 30000000 tuples (51%) done (elapsed 15.51 s, remaining 14.71 s)
15500000 of 30000000 tuples (51%) done (elapsed 15.61 s, remaining 14.60 s)
15600000 of 30000000 tuples (52%) done (elapsed 15.71 s, remaining 14.50 s)
15700000 of 30000000 tuples (52%) done (elapsed 15.81 s, remaining 14.40 s)
15800000 of 30000000 tuples (52%) done (elapsed 15.91 s, remaining 14.30 s)
15900000 of 30000000 tuples (53%) done (elapsed 16.01 s, remaining 14.20 s)
16000000 of 30000000 tuples (53%) done (elapsed 16.11 s, remaining 14.09 s)
16100000 of 30000000 tuples (53%) done (elapsed 16.21 s, remaining 13.99 s)
16200000 of 30000000 tuples (54%) done (elapsed 16.31 s, remaining 13.89 s)
16300000 of 30000000 tuples (54%) done (elapsed 16.41 s, remaining 13.79 s)
16400000 of 30000000 tuples (54%) done (elapsed 16.51 s, remaining 13.69 s)
16500000 of 30000000 tuples (55%) done (elapsed 16.61 s, remaining 13.59 s)
16600000 of 30000000 tuples (55%) done (elapsed 16.71 s, remaining 13.49 s)
16700000 of 30000000 tuples (55%) done (elapsed 16.81 s, remaining 13.39 s)
16800000 of 30000000 tuples (56%) done (elapsed 16.91 s, remaining 13.29 s)
16900000 of 30000000 tuples (56%) done (elapsed 17.01 s, remaining 13.18 s)
17000000 of 30000000 tuples (56%) done (elapsed 17.11 s, remaining 13.08 s)
17100000 of 30000000 tuples (57%) done (elapsed 17.21 s, remaining 12.98 s)
17200000 of 30000000 tuples (57%) done (elapsed 17.31 s, remaining 12.88 s)
17300000 of 30000000 tuples (57%) done (elapsed 17.40 s, remaining 12.78 s)
17400000 of 30000000 tuples (58%) done (elapsed 17.50 s, remaining 12.67 s)
17500000 of 30000000 tuples (58%) done (elapsed 17.60 s, remaining 12.57 s)
17600000 of 30000000 tuples (58%) done (elapsed 17.70 s, remaining 12.47 s)
17700000 of 30000000 tuples (59%) done (elapsed 17.80 s, remaining 12.37 s)
17800000 of 30000000 tuples (59%) done (elapsed 17.89 s, remaining 12.26 s)
17900000 of 30000000 tuples (59%) done (elapsed 18.00 s, remaining 12.17 s)
18000000 of 30000000 tuples (60%) done (elapsed 18.09 s, remaining 12.06 s)
18100000 of 30000000 tuples (60%) done (elapsed 18.19 s, remaining 11.96 s)
18200000 of 30000000 tuples (60%) done (elapsed 18.29 s, remaining 11.86 s)
18300000 of 30000000 tuples (61%) done (elapsed 18.39 s, remaining 11.76 s)
18400000 of 30000000 tuples (61%) done (elapsed 18.48 s, remaining 11.65 s)
18500000 of 30000000 tuples (61%) done (elapsed 18.58 s, remaining 11.55 s)
18600000 of 30000000 tuples (62%) done (elapsed 18.68 s, remaining 11.45 s)
18700000 of 30000000 tuples (62%) done (elapsed 18.78 s, remaining 11.35 s)
18800000 of 30000000 tuples (62%) done (elapsed 18.88 s, remaining 11.24 s)
18900000 of 30000000 tuples (63%) done (elapsed 18.98 s, remaining 11.14 s)
19000000 of 30000000 tuples (63%) done (elapsed 19.07 s, remaining 11.04 s)
19100000 of 30000000 tuples (63%) done (elapsed 19.17 s, remaining 10.94 s)
19200000 of 30000000 tuples (64%) done (elapsed 19.27 s, remaining 10.84 s)
19300000 of 30000000 tuples (64%) done (elapsed 19.36 s, remaining 10.73 s)
19400000 of 30000000 tuples (64%) done (elapsed 19.46 s, remaining 10.63 s)
19500000 of 30000000 tuples (65%) done (elapsed 19.56 s, remaining 10.53 s)
19600000 of 30000000 tuples (65%) done (elapsed 19.66 s, remaining 10.43 s)
19700000 of 30000000 tuples (65%) done (elapsed 19.75 s, remaining 10.33 s)
19800000 of 30000000 tuples (66%) done (elapsed 19.85 s, remaining 10.23 s)
19900000 of 30000000 tuples (66%) done (elapsed 19.95 s, remaining 10.13 s)
20000000 of 30000000 tuples (66%) done (elapsed 20.05 s, remaining 10.02 s)
20100000 of 30000000 tuples (67%) done (elapsed 20.14 s, remaining 9.92 s)
20200000 of 30000000 tuples (67%) done (elapsed 20.24 s, remaining 9.82 s)
20300000 of 30000000 tuples (67%) done (elapsed 20.34 s, remaining 9.72 s)
20400000 of 30000000 tuples (68%) done (elapsed 20.44 s, remaining 9.62 s)
20500000 of 30000000 tuples (68%) done (elapsed 20.54 s, remaining 9.52 s)
20600000 of 30000000 tuples (68%) done (elapsed 20.63 s, remaining 9.41 s)
20700000 of 30000000 tuples (69%) done (elapsed 20.73 s, remaining 9.31 s)
20800000 of 30000000 tuples (69%) done (elapsed 20.83 s, remaining 9.21 s)
20900000 of 30000000 tuples (69%) done (elapsed 20.93 s, remaining 9.11 s)
21000000 of 30000000 tuples (70%) done (elapsed 21.02 s, remaining 9.01 s)
21100000 of 30000000 tuples (70%) done (elapsed 21.13 s, remaining 8.91 s)
21200000 of 30000000 tuples (70%) done (elapsed 21.23 s, remaining 8.81 s)
21300000 of 30000000 tuples (71%) done (elapsed 21.33 s, remaining 8.71 s)
21400000 of 30000000 tuples (71%) done (elapsed 21.42 s, remaining 8.61 s)
21500000 of 30000000 tuples (71%) done (elapsed 21.53 s, remaining 8.51 s)
21600000 of 30000000 tuples (72%) done (elapsed 21.62 s, remaining 8.41 s)
21700000 of 30000000 tuples (72%) done (elapsed 21.72 s, remaining 8.31 s)
21800000 of 30000000 tuples (72%) done (elapsed 21.82 s, remaining 8.21 s)
21900000 of 30000000 tuples (73%) done (elapsed 21.92 s, remaining 8.11 s)
22000000 of 30000000 tuples (73%) done (elapsed 22.02 s, remaining 8.01 s)
22100000 of 30000000 tuples (73%) done (elapsed 22.13 s, remaining 7.91 s)
22200000 of 30000000 tuples (74%) done (elapsed 22.22 s, remaining 7.81 s)
22300000 of 30000000 tuples (74%) done (elapsed 22.32 s, remaining 7.71 s)
22400000 of 30000000 tuples (74%) done (elapsed 22.42 s, remaining 7.61 s)
22500000 of 30000000 tuples (75%) done (elapsed 22.52 s, remaining 7.51 s)
22600000 of 30000000 tuples (75%) done (elapsed 22.62 s, remaining 7.41 s)
22700000 of 30000000 tuples (75%) done (elapsed 22.72 s, remaining 7.31 s)
22800000 of 30000000 tuples (76%) done (elapsed 22.82 s, remaining 7.21 s)
22900000 of 30000000 tuples (76%) done (elapsed 22.92 s, remaining 7.10 s)
23000000 of 30000000 tuples (76%) done (elapsed 23.02 s, remaining 7.01 s)
23100000 of 30000000 tuples (77%) done (elapsed 23.12 s, remaining 6.90 s)
23200000 of 30000000 tuples (77%) done (elapsed 23.37 s, remaining 6.85 s)
23300000 of 30000000 tuples (77%) done (elapsed 23.48 s, remaining 6.75 s)
23400000 of 30000000 tuples (78%) done (elapsed 23.58 s, remaining 6.65 s)
23500000 of 30000000 tuples (78%) done (elapsed 23.67 s, remaining 6.55 s)
23600000 of 30000000 tuples (78%) done (elapsed 23.77 s, remaining 6.45 s)
23700000 of 30000000 tuples (79%) done (elapsed 23.88 s, remaining 6.35 s)
23800000 of 30000000 tuples (79%) done (elapsed 23.97 s, remaining 6.25 s)
23900000 of 30000000 tuples (79%) done (elapsed 24.07 s, remaining 6.14 s)
24000000 of 30000000 tuples (80%) done (elapsed 24.17 s, remaining 6.04 s)
24100000 of 30000000 tuples (80%) done (elapsed 24.27 s, remaining 5.94 s)
24200000 of 30000000 tuples (80%) done (elapsed 24.37 s, remaining 5.84 s)
24300000 of 30000000 tuples (81%) done (elapsed 24.47 s, remaining 5.74 s)
24400000 of 30000000 tuples (81%) done (elapsed 24.56 s, remaining 5.64 s)
24500000 of 30000000 tuples (81%) done (elapsed 24.66 s, remaining 5.54 s)
24600000 of 30000000 tuples (82%) done (elapsed 24.76 s, remaining 5.44 s)
24700000 of 30000000 tuples (82%) done (elapsed 24.85 s, remaining 5.33 s)
24800000 of 30000000 tuples (82%) done (elapsed 24.95 s, remaining 5.23 s)
24900000 of 30000000 tuples (83%) done (elapsed 25.18 s, remaining 5.16 s)
25000000 of 30000000 tuples (83%) done (elapsed 25.29 s, remaining 5.06 s)
25100000 of 30000000 tuples (83%) done (elapsed 25.42 s, remaining 4.96 s)
25200000 of 30000000 tuples (84%) done (elapsed 25.53 s, remaining 4.86 s)
25300000 of 30000000 tuples (84%) done (elapsed 25.66 s, remaining 4.77 s)
25400000 of 30000000 tuples (84%) done (elapsed 25.77 s, remaining 4.67 s)
25500000 of 30000000 tuples (85%) done (elapsed 25.88 s, remaining 4.57 s)
25600000 of 30000000 tuples (85%) done (elapsed 25.98 s, remaining 4.47 s)
25700000 of 30000000 tuples (85%) done (elapsed 26.08 s, remaining 4.36 s)
25800000 of 30000000 tuples (86%) done (elapsed 26.19 s, remaining 4.26 s)
25900000 of 30000000 tuples (86%) done (elapsed 26.29 s, remaining 4.16 s)
26000000 of 30000000 tuples (86%) done (elapsed 26.39 s, remaining 4.06 s)
26100000 of 30000000 tuples (87%) done (elapsed 26.50 s, remaining 3.96 s)
26200000 of 30000000 tuples (87%) done (elapsed 26.60 s, remaining 3.86 s)
26300000 of 30000000 tuples (87%) done (elapsed 26.70 s, remaining 3.76 s)
26400000 of 30000000 tuples (88%) done (elapsed 26.81 s, remaining 3.66 s)
26500000 of 30000000 tuples (88%) done (elapsed 26.91 s, remaining 3.55 s)
26600000 of 30000000 tuples (88%) done (elapsed 27.01 s, remaining 3.45 s)
26700000 of 30000000 tuples (89%) done (elapsed 27.12 s, remaining 3.35 s)
26800000 of 30000000 tuples (89%) done (elapsed 27.22 s, remaining 3.25 s)
26900000 of 30000000 tuples (89%) done (elapsed 27.33 s, remaining 3.15 s)
27000000 of 30000000 tuples (90%) done (elapsed 27.43 s, remaining 3.05 s)
27100000 of 30000000 tuples (90%) done (elapsed 27.53 s, remaining 2.95 s)
27200000 of 30000000 tuples (90%) done (elapsed 27.64 s, remaining 2.84 s)
27300000 of 30000000 tuples (91%) done (elapsed 27.74 s, remaining 2.74 s)
27400000 of 30000000 tuples (91%) done (elapsed 27.85 s, remaining 2.64 s)
27500000 of 30000000 tuples (91%) done (elapsed 27.95 s, remaining 2.54 s)
27600000 of 30000000 tuples (92%) done (elapsed 28.05 s, remaining 2.44 s)
27700000 of 30000000 tuples (92%) done (elapsed 28.15 s, remaining 2.34 s)
27800000 of 30000000 tuples (92%) done (elapsed 28.26 s, remaining 2.24 s)
27900000 of 30000000 tuples (93%) done (elapsed 28.36 s, remaining 2.13 s)
28000000 of 30000000 tuples (93%) done (elapsed 28.47 s, remaining 2.03 s)
28100000 of 30000000 tuples (93%) done (elapsed 28.57 s, remaining 1.93 s)
28200000 of 30000000 tuples (94%) done (elapsed 28.67 s, remaining 1.83 s)
28300000 of 30000000 tuples (94%) done (elapsed 28.78 s, remaining 1.73 s)
28400000 of 30000000 tuples (94%) done (elapsed 28.88 s, remaining 1.63 s)
28500000 of 30000000 tuples (95%) done (elapsed 28.99 s, remaining 1.53 s)
28600000 of 30000000 tuples (95%) done (elapsed 29.09 s, remaining 1.42 s)
28700000 of 30000000 tuples (95%) done (elapsed 29.19 s, remaining 1.32 s)
28800000 of 30000000 tuples (96%) done (elapsed 29.29 s, remaining 1.22 s)
28900000 of 30000000 tuples (96%) done (elapsed 29.40 s, remaining 1.12 s)
29000000 of 30000000 tuples (96%) done (elapsed 29.50 s, remaining 1.02 s)
29100000 of 30000000 tuples (97%) done (elapsed 29.61 s, remaining 0.92 s)
29200000 of 30000000 tuples (97%) done (elapsed 29.71 s, remaining 0.81 s)
29300000 of 30000000 tuples (97%) done (elapsed 29.81 s, remaining 0.71 s)
29400000 of 30000000 tuples (98%) done (elapsed 29.92 s, remaining 0.61 s)
29500000 of 30000000 tuples (98%) done (elapsed 30.02 s, remaining 0.51 s)
29600000 of 30000000 tuples (98%) done (elapsed 30.12 s, remaining 0.41 s)
29700000 of 30000000 tuples (99%) done (elapsed 30.23 s, remaining 0.31 s)
29800000 of 30000000 tuples (99%) done (elapsed 30.33 s, remaining 0.20 s)
29900000 of 30000000 tuples (99%) done (elapsed 30.44 s, remaining 0.10 s)
30000000 of 30000000 tuples (100%) done (elapsed 30.54 s, remaining 0.00 s)
vacuum...
set primary keys...
done.
