starting vacuum...end.
transaction type: multiple scripts
scaling factor: 300
query mode: prepared
number of clients: 32
number of threads: 8
duration: 300 s
number of transactions actually processed: 11283981
latency average: 0.851 ms
tps = 37610.699936 (including connections establishing)
tps = 37611.298941 (excluding connections establishing)
SQL script 1: <builtin: select only>
 - weight = 1 (targets 50.0% of total)
 - 5634129 transactions (49.9% of total, tps = 18779.146758)
 - latency average = 0.219 ms
 - latency stddev = 0.139 ms
SQL script 2: test.sql
 - weight = 1 (targets 50.0% of total)
 - 5627241 transactions (49.9% of total, tps = 18756.188327)
 - latency average = 1.481 ms
 - latency stddev = 0.577 ms
