starting vacuum...end.
transaction type: test.sql
scaling factor: 1
query mode: prepared
number of clients: 64
number of threads: 16
duration: 300 s
number of transactions actually processed: 14675901
latency average: 1.308 ms
tps = 48919.134988 (including connections establishing)
tps = 48920.042266 (excluding connections establishing)
