starting vacuum...end.
transaction type: test.sql
scaling factor: 1
query mode: prepared
number of clients: 32
number of threads: 8
duration: 300 s
number of transactions actually processed: 9366244
latency average: 1.025 ms
tps = 31220.691677 (including connections establishing)
tps = 31221.205101 (excluding connections establishing)
